Lab2/Lab2_4_bit_RBS.vcd
$date
	Fri May 06 00:29:43 2022
$end
$version
	Icarus Verilog
$end
$timescale
	1s
$end
$scope module t_Lab2_4_bit_sub $end
$var wire 4 ! d [3:0] $end
$var wire 1 " bout $end
$var reg 4 # a [3:0] $end
$var reg 4 $ b [3:0] $end
$var reg 1 % bin $end
$scope module RBS $end
$var wire 4 & A [3:0] $end
$var wire 4 ' B [3:0] $end
$var wire 1 % bin $end
$var wire 1 " bout $end
$var wire 1 ( b3 $end
$var wire 1 ) b2 $end
$var wire 1 * b1 $end
$var wire 4 + D [3:0] $end
$scope module FS0 $end
$var wire 1 , a $end
$var wire 1 - b $end
$var wire 1 % bin $end
$var wire 1 * bout $end
$var wire 1 . diff $end
$var wire 1 / d $end
$var wire 1 0 b2 $end
$var wire 1 1 b1 $end
$scope module HS1 $end
$var wire 1 , a $end
$var wire 1 - b $end
$var wire 1 1 bout $end
$var wire 1 / diff $end
$var wire 1 2 w1 $end
$upscope $end
$scope module HS2 $end
$var wire 1 / a $end
$var wire 1 % b $end
$var wire 1 0 bout $end
$var wire 1 . diff $end
$var wire 1 3 w1 $end
$upscope $end
$upscope $end
$scope module FS1 $end
$var wire 1 4 a $end
$var wire 1 5 b $end
$var wire 1 * bin $end
$var wire 1 ) bout $end
$var wire 1 6 diff $end
$var wire 1 7 d $end
$var wire 1 8 b2 $end
$var wire 1 9 b1 $end
$scope module HS1 $end
$var wire 1 4 a $end
$var wire 1 5 b $end
$var wire 1 9 bout $end
$var wire 1 7 diff $end
$var wire 1 : w1 $end
$upscope $end
$scope module HS2 $end
$var wire 1 7 a $end
$var wire 1 * b $end
$var wire 1 8 bout $end
$var wire 1 6 diff $end
$var wire 1 ; w1 $end
$upscope $end
$upscope $end
$scope module FS2 $end
$var wire 1 < a $end
$var wire 1 = b $end
$var wire 1 ) bin $end
$var wire 1 ( bout $end
$var wire 1 > diff $end
$var wire 1 ? d $end
$var wire 1 @ b2 $end
$var wire 1 A b1 $end
$scope module HS1 $end
$var wire 1 < a $end
$var wire 1 = b $end
$var wire 1 A bout $end
$var wire 1 ? diff $end
$var wire 1 B w1 $end
$upscope $end
$scope module HS2 $end
$var wire 1 ? a $end
$var wire 1 ) b $end
$var wire 1 @ bout $end
$var wire 1 > diff $end
$var wire 1 C w1 $end
$upscope $end
$upscope $end
$scope module FS3 $end
$var wire 1 D a $end
$var wire 1 E b $end
$var wire 1 ( bin $end
$var wire 1 " bout $end
$var wire 1 F diff $end
$var wire 1 G d $end
$var wire 1 H b2 $end
$var wire 1 I b1 $end
$scope module HS1 $end
$var wire 1 D a $end
$var wire 1 E b $end
$var wire 1 I bout $end
$var wire 1 G diff $end
$var wire 1 J w1 $end
$upscope $end
$scope module HS2 $end
$var wire 1 G a $end
$var wire 1 ( b $end
$var wire 1 H bout $end
$var wire 1 F diff $end
$var wire 1 K w1 $end
$upscope $end
$upscope $end
$upscope $end
$upscope $end
$enddefinitions $end
#0
$dumpvars
xK
1J
xI
xH
xG
xF
1E
0D
xC
1B
xA
x@
x?
x>
1=
0<
x;
1:
x9
x8
x7
x6
05
04
x3
12
x1
x0
x/
x.
0-
0,
bx +
x*
x)
x(
b1100 '
b0 &
1%
b1100 $
b0 #
x"
bx !
$end
#2
01
09
1A
1I
#4
13
1;
0C
0K
1(
1"
0/
07
1?
1G
#6
10
0@
0H
#8
1*
1.
b0xx1 !
b0xx1 +
0F
#10
18
#12
1)
b0x11 !
b0x11 +
16
#16
b11 !
b11 +
0>
#20
02
15
0=
0E
1,
b10 $
b10 '
b1 #
b1 &
#22
19
0A
0I
#24
0;
1C
1K
03
0(
0"
17
0?
0G
1/
#26
08
1@
00
#28
1(
0*
06
1>
b100 !
b100 +
0.
#30
1H
#32
1"
1F
b1110 !
b1110 +
16
#40
0:
1=
14
b110 $
b110 '
b11 #
b11 &
#42
09
1A
#44
0C
1;
0)
1?
07
#46
0@
#48
b1100 !
b1100 +
06
#60
1:
0B
1-
0=
1E
04
1<
0%
b1011 $
b1011 '
b101 #
b101 &
#62
19
0A
1I
#64
13
0K
0;
1)
0(
0/
1G
17
b1101 !
b1101 +
1.
#66
0H
#68
0>
0.
b1010 !
b1010 +
16
#80
0:
0-
14
1%
b1010 $
b1010 '
b111 #
b111 &
#82
09
10
#84
03
1;
0)
1*
1/
07
b1011 !
b1011 +
1.
#86
00
18
#88
0*
1)
1>
b1110 !
b1110 +
0.
#90
08
#92
0)
06
b1000 !
b1000 +
0>
#96
b1100 !
b1100 +
1>
#100
12
1:
1B
0J
1-
05
0E
0,
04
0<
1D
0%
b1 $
b1 '
b1000 #
b1000 &
#102
11
0I
#104
1C
1*
0"
0?
b1101 !
b1101 +
1.
#106
18
#108
1)
16
b1011 !
b1011 +
0>
#110
1@
#112
1(
b1111 !
b1111 +
1>
#116
b111 !
b111 +
0F
#120
02
0:
0-
15
1=
1,
14
b110 $
b110 '
b1011 #
b1011 &
#122
01
1A
#124
0C
0*
1?
#126
0@
08
#128
0)
06
b1 !
b1 +
0>
#132
b101 !
b101 +
1>
#140
0B
1-
1E
1<
1%
b1111 $
b1111 '
b1111 #
b1111 &
#142
0A
#144
13
1K
1C
0(
0/
0G
0?
b100 !
b100 +
0.
#146
10
#148
1*
1.
b1 !
b1 +
0>
#150
18
#152
1)
b11 !
b11 +
16
#154
1@
#156
1(
b111 !
b111 +
1>
#158
1H
#160
1"
b1111 !
b1111 +
1F
